{
    "trees": [
        {
          "id": "rooted",
          "description": "Rooted tree",
          "parser": "parseRootedTree",
          "accepts": ["rf", "rfl", "trip"]
        },
        {
          "id": "unrooted",
          "description": "Unrooted tree",
          "parser": "parseUnrootedTree",
          "accepts": ["rf", "rfl", "quart"]
        },
        {
          "id": "forest",
          "description": "Tree forest",
          "parser": "parseTreeForest",
          "accepts": ["rf", "rfl", "quart"]
        }
    ],
    "metrics": [
        {
          "id": "robinsonFoulds",
          "description": "Robinson Foulds Distance",
          "metric": "rf"
        },
        {
          "id": "robinsonFouldsLength",
          "description": "Robinson Foulds with Lengths",
          "metric": "rfl"
        },
        {
          "id": "triplet",
          "description": "Triplets distance",
          "metric": "trip"
        },
        {
          "id": "quartet",
          "description": "Quartets distance",
          "metric": "quart"

        }
    ],
    "parsers": [
        {
          "id": "newick",
          "description": "newick format",
          "parser": "nwk"
        }
    ]
}